<?xml version="1.0" encoding="UTF-8"?>
<svg width="100px" height="78px" viewBox="0 0 100 78" version="1.1" xmlns="http://www.w3.org/2000/svg" xmlns:xlink="http://www.w3.org/1999/xlink">
    <!-- Generator: Sketch 52.3 (67297) - http://www.bohemiancoding.com/sketch -->
    <title>survey-icon</title>
    <desc>Created with Sketch.</desc>
    <g id="Page-1" stroke="none" stroke-width="1" fill="none" fill-rule="evenodd">
        <g id="GitLab-First-Look" transform="translate(-735.000000, -2192.000000)">
            <g id="survey-icon" transform="translate(736.000000, 2192.000000)">
                <polygon id="Fill-1" fill="#FCA326" points="29 1 31.122 7.552 38 7.552 32.428 11.586 34.572 18.114 29 14.057 23.451 18.114 25.596 11.586 20 7.552 26.901 7.552"></polygon>
                <polygon id="Stroke-2" stroke="#333333" stroke-width="2" stroke-linecap="round" stroke-linejoin="round" points="29 1 31.122 7.552 38 7.552 32.428 11.586 34.572 18.114 29 14.057 23.451 18.114 25.596 11.586 20 7.552 26.901 7.552"></polygon>
                <polygon id="Fill-4" fill="#FCA326" points="59 1 61.122 7.552 68 7.552 62.428 11.586 64.572 18.114 59 14.057 53.451 18.114 55.596 11.586 50 7.552 56.901 7.552"></polygon>
                <polygon id="Stroke-5" stroke="#333333" stroke-width="2" stroke-linecap="round" stroke-linejoin="round" points="59 1 61.122 7.552 68 7.552 62.428 11.586 64.572 18.114 59 14.057 53.451 18.114 55.596 11.586 50 7.552 56.901 7.552"></polygon>
                <polygon id="Fill-7" fill="#FCA326" points="89 1 91.122 7.552 98 7.552 92.428 11.586 94.572 18.114 89 14.057 83.451 18.114 85.596 11.586 80 7.552 86.901 7.552"></polygon>
                <g id="Group-46" transform="translate(0.000000, 0.114000)">
                    <polygon id="Stroke-8" stroke="#333333" stroke-width="2" stroke-linecap="round" stroke-linejoin="round" points="89 0.886 91.122 7.438 98 7.438 92.428 11.472 94.572 18 89 13.943 83.451 18 85.596 11.472 80 7.438 86.901 7.438"></polygon>
                    <path d="M8,14.886 L2,14.886 C0.896,14.886 0,13.99 0,12.886 L0,6.886 C0,5.782 0.896,4.886 2,4.886 L8,4.886 C9.104,4.886 10,5.782 10,6.886 L10,12.886 C10,13.99 9.104,14.886 8,14.886" id="Fill-10" fill="#FFFFFF"></path>
                    <path d="M8,14.886 L2,14.886 C0.896,14.886 0,13.99 0,12.886 L0,6.886 C0,5.782 0.896,4.886 2,4.886 L8,4.886 C9.104,4.886 10,5.782 10,6.886 L10,12.886 C10,13.99 9.104,14.886 8,14.886 Z" id="Stroke-12" stroke="#333333" stroke-width="2" stroke-linecap="round" stroke-linejoin="round"></path>
                    <polygon id="Fill-14" fill="#FCA326" points="29 29.886 31.122 36.438 38 36.438 32.428 40.472 34.572 47 29 42.943 23.451 47 25.596 40.472 20 36.438 26.901 36.438"></polygon>
                    <polygon id="Stroke-16" stroke="#333333" stroke-width="2" stroke-linecap="round" stroke-linejoin="round" points="29 29.886 31.122 36.438 38 36.438 32.428 40.472 34.572 47 29 42.943 23.451 47 25.596 40.472 20 36.438 26.901 36.438"></polygon>
                    <polygon id="Fill-18" fill="#FFFFFF" points="59 29.886 61.122 36.438 68 36.438 62.428 40.472 64.572 47 59 42.943 53.451 47 55.596 40.472 50 36.438 56.901 36.438"></polygon>
                    <polygon id="Stroke-20" stroke="#333333" stroke-width="2" stroke-linecap="round" stroke-linejoin="round" points="59 29.886 61.122 36.438 68 36.438 62.428 40.472 64.572 47 59 42.943 53.451 47 55.596 40.472 50 36.438 56.901 36.438"></polygon>
                    <polygon id="Fill-22" fill="#FFFFFF" points="89 29.886 91.122 36.438 98 36.438 92.428 40.472 94.572 47 89 42.943 83.451 47 85.596 40.472 80 36.438 86.901 36.438"></polygon>
                    <polygon id="Stroke-24" stroke="#333333" stroke-width="2" stroke-linecap="round" stroke-linejoin="round" points="89 29.886 91.122 36.438 98 36.438 92.428 40.472 94.572 47 89 42.943 83.451 47 85.596 40.472 80 36.438 86.901 36.438"></polygon>
                    <path d="M8,43.886 L2,43.886 C0.896,43.886 0,42.99 0,41.886 L0,35.886 C0,34.782 0.896,33.886 2,33.886 L8,33.886 C9.104,33.886 10,34.782 10,35.886 L10,41.886 C10,42.99 9.104,43.886 8,43.886" id="Fill-26" fill="#FFFFFF"></path>
                    <path d="M8,43.886 L2,43.886 C0.896,43.886 0,42.99 0,41.886 L0,35.886 C0,34.782 0.896,33.886 2,33.886 L8,33.886 C9.104,33.886 10,34.782 10,35.886 L10,41.886 C10,42.99 9.104,43.886 8,43.886 Z" id="Stroke-28" stroke="#333333" stroke-width="2" stroke-linecap="round" stroke-linejoin="round"></path>
                    <polygon id="Fill-30" fill="#FCA326" points="29 58.886 31.122 65.438 38 65.438 32.428 69.472 34.572 76 29 71.943 23.451 76 25.596 69.472 20 65.438 26.901 65.438"></polygon>
                    <polygon id="Stroke-32" stroke="#333333" stroke-width="2" stroke-linecap="round" stroke-linejoin="round" points="29 58.886 31.122 65.438 38 65.438 32.428 69.472 34.572 76 29 71.943 23.451 76 25.596 69.472 20 65.438 26.901 65.438"></polygon>
                    <polygon id="Fill-34" fill="#FCA326" points="59 58.886 61.122 65.438 68 65.438 62.428 69.472 64.572 76 59 71.943 53.451 76 55.596 69.472 50 65.438 56.901 65.438"></polygon>
                    <polygon id="Stroke-36" stroke="#333333" stroke-width="2" stroke-linecap="round" stroke-linejoin="round" points="59 58.886 61.122 65.438 68 65.438 62.428 69.472 64.572 76 59 71.943 53.451 76 55.596 69.472 50 65.438 56.901 65.438"></polygon>
                    <polygon id="Fill-38" fill="#FFFFFF" points="89 58.886 91.122 65.438 98 65.438 92.428 69.472 94.572 76 89 71.943 83.451 76 85.596 69.472 80 65.438 86.901 65.438"></polygon>
                    <polygon id="Stroke-40" stroke="#333333" stroke-width="2" stroke-linecap="round" stroke-linejoin="round" points="89 58.886 91.122 65.438 98 65.438 92.428 69.472 94.572 76 89 71.943 83.451 76 85.596 69.472 80 65.438 86.901 65.438"></polygon>
                    <path d="M8,72.886 L2,72.886 C0.896,72.886 0,71.99 0,70.886 L0,64.886 C0,63.782 0.896,62.886 2,62.886 L8,62.886 C9.104,62.886 10,63.782 10,64.886 L10,70.886 C10,71.99 9.104,72.886 8,72.886" id="Fill-42" fill="#FFFFFF"></path>
                    <path d="M8,72.886 L2,72.886 C0.896,72.886 0,71.99 0,70.886 L0,64.886 C0,63.782 0.896,62.886 2,62.886 L8,62.886 C9.104,62.886 10,63.782 10,64.886 L10,70.886 C10,71.99 9.104,72.886 8,72.886 Z" id="Stroke-44" stroke="#333333" stroke-width="2" stroke-linecap="round" stroke-linejoin="round"></path>
                </g>
            </g>
        </g>
    </g>
</svg>